{
  "description": "YWhales is a group of YPO members spanning the globe focused on emerging blockchain technologies. Crystal Whale holders are recognized and tracked by our organization",
  "external_url": "https://dummy.fluidchains.xyz/tokens/4.json",
  "name": "Donut",
  "animation_url": "https://dummy.fluidchains.xyz/tokens/Donut.glb",
  "attributes": [
  {
  "type": "Crystal"
  },
  {
  "AKA": "Bearded, Hoody, Self Custody"
  },
  {
  "Quantity": "50"
  }
  ]
  }
